// Jest Snapshot v1, https://goo.gl/fbAQLP

exports[`<ExchangeInputBalance /> should match snapshot 1`] = `
<div>
  <div
    class="ExchangeInputBalance"
  >
    Balance: 
    100
     
    EUR
  </div>
</div>
`;
