// Jest Snapshot v1, https://goo.gl/fbAQLP

exports[`<ExchangeSubtitle /> should match snapshot 1`] = `
<div>
  <div
    class="ExchangeSubtitle"
  >
    Market order - 
    1
     
    EUR
     = 
    1.22
     
    USD
  </div>
</div>
`;
